AN489_UFM_with_I2C_Altera_MAX_II_CPLD_Design_Example/modelsim/test.vcd
$date
	Fri Dec 29 08:36:40 2006
$end
$version
	ModelSim Version 6.1d
$end
$timescale
	1ps
$end
$scope module test_ufm_memory $end
$var reg 1 ! sclk $end
$var reg 1 " sda1 $end
$var reg 8 # sda_rd [7:0] $end
$var wand 1 $ latch1 $end
$var wand 1 % latch2 $end
$var integer 32 & seed $end
$var reg 8 ' wr_add [7:0] $end
$var reg 8 ( rd_add [7:0] $end
$var reg 8 ) b_add [7:0] $end
$var reg 8 * data [7:0] $end
$var reg 1 + ack_check $end
$scope module test $end
$var wire 1 , a1 $end
$var wire 1 - a2 $end
$var wire 1 % scl $end
$var wire 1 $ sda $end
$scope module ufm_memory_altufm_i2c_91u_component $end
$var wire 1 , a1 $end
$var wire 1 - a2 $end
$var wire 1 % scl $end
$var wire 1 $ sda $end
$var wire 1 . wire_data_pad_cntr_q [3] $end
$var wire 1 / wire_data_pad_cntr_q [2] $end
$var wire 1 0 wire_data_pad_cntr_q [1] $end
$var wire 1 1 wire_data_pad_cntr_q [0] $end
$var wire 1 2 wire_er_add_cntr_q [3] $end
$var wire 1 3 wire_er_add_cntr_q [2] $end
$var wire 1 4 wire_er_add_cntr_q [1] $end
$var wire 1 5 wire_er_add_cntr_q [0] $end
$var wire 1 6 wire_er_stg_cntr_q [1] $end
$var wire 1 7 wire_er_stg_cntr_q [0] $end
$var wire 1 8 wire_general_cntr_q [3] $end
$var wire 1 9 wire_general_cntr_q [2] $end
$var wire 1 : wire_general_cntr_q [1] $end
$var wire 1 ; wire_general_cntr_q [0] $end
$var wire 1 < wire_stage_cntr_q [1] $end
$var wire 1 = wire_stage_cntr_q [0] $end
$var reg 1 > a0_dly_reg $end
$var reg 1 ? ack_data_reg $end
$var wire 1 @ wire_ack_data_reg_CLRN $end
$var wire 1 A wire_ack_data_reg_ENA $end
$var reg 1 B ack_ea_reg $end
$var wire 1 C wire_ack_ea_reg_CLRN $end
$var reg 1 D ack_ma_reg $end
$var wire 1 E wire_ack_ma_reg_CLRN $end
$var reg 1 F ack_sa_reg $end
$var wire 1 G wire_ack_sa_reg_CLRN $end
$var reg 1 H add_en_reg $end
$var wire 1 I wire_add_en_reg_CLRN $end
$var reg 1 J bgpbsy_rdreg $end
$var wire 1 K wire_bgpbsy_rdreg_ENA $end
$var reg 1 L bgpend_det_reg $end
$var reg 1 M busy_dea_reg $end
$var wire 1 N wire_busy_dea_reg_ENA $end
$var reg 1 O busy_det_reg $end
$var reg 1 P busy_det_reg2 $end
$var reg 1 Q clr_drclk_reg $end
$var reg 1 R data_suc_reg $end
$var wire 1 S wire_data_suc_reg_ENA $end
$var reg 7 T dev_add_reg [6:0] $end
$var reg 1 U din_en_reg $end
$var wire 1 V wire_din_en_reg_CLRN $end
$var wire 1 W wire_din_en_reg_ENA $end
$var reg 1 X do_erase_reg $end
$var reg 1 Y do_memadd_reg $end
$var reg 1 Z do_memadd_reg2 $end
$var reg 1 [ drdout_reg $end
$var reg 1 \ drshft_reg $end
$var reg 1 ] ena_drclk_reg $end
$var reg 1 ^ ena_write_reg $end
$var reg 1 _ end_datpd_reg $end
$var reg 1 ` end_din_reg $end
$var wire 1 a wire_end_din_reg_CLRN $end
$var reg 1 b end_er_add_reg $end
$var reg 1 c end_fuller_reg $end
$var reg 1 d end_memadd_reg $end
$var wire 1 e wire_end_memadd_reg_CLRN $end
$var reg 1 f end_wrdly_reg $end
$var reg 1 g end_write_reg $end
$var reg 1 h end_write_reg2 $end
$var reg 1 i er_stgctr0_reg $end
$var reg 1 j eradd_mtch_reg $end
$var reg 1 k erase_reg $end
$var reg 1 l fin_devadd_reg $end
$var wire 1 m wire_fin_devadd_reg_CLRN $end
$var reg 1 n gcntr_aclr_int_reg $end
$var reg 1 o gcntr_aclr_reg $end
$var reg 1 p gcntr_aclr_reg2 $end
$var reg 1 q gen_cntr2_reg $end
$var wire 1 r wire_gen_cntr2_reg_CLRN $end
$var reg 1 s memadd_shft_reg $end
$var wire 1 t wire_memadd_shft_reg_CLRN $end
$var reg 1 u rd_wr_reg $end
$var wire 1 v wire_rd_wr_reg_CLRN $end
$var wire 1 w wire_rd_wr_reg_ENA $end
$var reg 1 x reach_cnt9_reg $end
$var reg 1 y read_nack_reg $end
$var wire 1 z wire_read_nack_reg_CLRN $end
$var wire 1 { wire_read_nack_reg_ENA $end
$var reg 1 | read_oe_reg $end
$var wire 1 } wire_read_oe_reg_PRN $end
$var reg 1 ~ rstart_clr_reg $end
$var reg 1 !! rstart_clr_reg2 $end
$var reg 1 "! rstart_det_da_reg $end
$var reg 1 #! rstart_det_da_reg2 $end
$var reg 1 $! rstart_det_reg $end
$var wire 1 %! wire_rstart_det_reg_CLRN $end
$var reg 1 &! sda_indly_reg $end
$var reg 1 '! sda_indly_reg2 $end
$var reg 1 (! start_datpd_reg $end
$var reg 1 )! start_detect_reg $end
$var wire 1 *! wire_start_detect_reg_ENA $end
$var reg 1 +! start_din_reg $end
$var wire 1 ,! wire_start_din_reg_CLRN $end
$var reg 1 -! start_er_add_reg $end
$var reg 1 .! start_erase_reg $end
$var reg 1 /! start_memadd_reg $end
$var wire 1 0! wire_start_memadd_reg_CLRN $end
$var wire 1 1! wire_start_memadd_reg_ENA $end
$var reg 1 2! start_prog_reg $end
$var wire 1 3! wire_start_prog_reg_ENA $end
$var reg 1 4! start_rd_reg $end
$var reg 1 5! stop_det_da_reg $end
$var reg 1 6! stop_det_da_reg2 $end
$var reg 1 7! stop_detect_reg $end
$var wire 1 8! wire_stop_detect_reg_ENA $end
$var reg 1 9! stop_rst_reg $end
$var reg 1 :! stop_rst_reg2 $end
$var reg 1 ;! strd_drclk_reg $end
$var reg 1 <! wire_cmpr4_aeb_int $end
$var wire 1 =! wire_cmpr4_aeb $end
$var wire 1 >! wire_cmpr4_dataa [5] $end
$var wire 1 ?! wire_cmpr4_dataa [4] $end
$var wire 1 @! wire_cmpr4_dataa [3] $end
$var wire 1 A! wire_cmpr4_dataa [2] $end
$var wire 1 B! wire_cmpr4_dataa [1] $end
$var wire 1 C! wire_cmpr4_dataa [0] $end
$var wire 1 D! wire_cmpr4_datab [5] $end
$var wire 1 E! wire_cmpr4_datab [4] $end
$var wire 1 F! wire_cmpr4_datab [3] $end
$var wire 1 G! wire_cmpr4_datab [2] $end
$var wire 1 H! wire_cmpr4_datab [1] $end
$var wire 1 I! wire_cmpr4_datab [0] $end
$var reg 1 J! wire_cmpr6_aeb_int $end
$var wire 1 K! wire_cmpr6_aeb $end
$var wire 1 L! wire_cmpr6_dataa [6] $end
$var wire 1 M! wire_cmpr6_dataa [5] $end
$var wire 1 N! wire_cmpr6_dataa [4] $end
$var wire 1 O! wire_cmpr6_dataa [3] $end
$var wire 1 P! wire_cmpr6_dataa [2] $end
$var wire 1 Q! wire_cmpr6_dataa [1] $end
$var wire 1 R! wire_cmpr6_dataa [0] $end
$var wire 1 S! wire_cmpr6_datab [6] $end
$var wire 1 T! wire_cmpr6_datab [5] $end
$var wire 1 U! wire_cmpr6_datab [4] $end
$var wire 1 V! wire_cmpr6_datab [3] $end
$var wire 1 W! wire_cmpr6_datab [2] $end
$var wire 1 X! wire_cmpr6_datab [1] $end
$var wire 1 Y! wire_cmpr6_datab [0] $end
$var wire 1 Z! wire_maxii_io2_combout $end
$var wire 1 [! wire_maxii_io3_combout $end
$var wire 1 \! wire_maxii_ufm_block1_bgpbusy $end
$var wire 1 ]! wire_maxii_ufm_block1_busy $end
$var wire 1 ^! wire_maxii_ufm_block1_drdout $end
$var wire 1 _! wire_maxii_ufm_block1_osc $end
$var wire 1 `! a0_wire $end
$var wire 1 a! ack_pulse_data $end
$var wire 1 b! ack_pulse_ea $end
$var wire 1 c! ack_pulse_ma $end
$var wire 1 d! ack_pulse_sa $end
$var wire 1 e! ardin_en $end
$var wire 1 f! bgpbusy_detect $end
$var wire 1 g! bgplow $end
$var wire 1 h! busy_deassert $end
$var wire 1 i! busy_det $end
$var wire 1 j! clock_oe $end
$var wire 1 k! clr_rstart $end
$var wire 1 l! count9 $end
$var wire 1 m! count_end $end
$var wire 1 n! data_pad_complete $end
$var wire 1 o! data_suc $end
$var wire 1 p! do_add_shft $end
$var wire 1 q! do_eradd $end
$var wire 1 r! do_eradd_shft $end
$var wire 1 s! do_mem_add $end
$var wire 1 t! do_read $end
$var wire 1 u! do_write $end
$var wire 1 v! drdin_en $end
$var wire 1 w! end_din_reg_ena $end
$var wire 1 x! end_full_erase $end
$var wire 1 y! end_memadd_reg_ena $end
$var wire 1 z! end_write $end
$var wire 1 {! end_write_dly $end
$var wire 1 |! er_add_complete $end
$var wire 1 }! er_stg_complete $end
$var wire 1 ~! er_stgctr_out0 $end
$var wire 1 !" eradd_mtch_dly $end
$var wire 1 "" erase_add_match $end
$var wire 1 #" fin_devadd_reg_ena $end
$var wire 1 $" finish_dev_add $end
$var wire 1 %" gen_cntr2 $end
$var wire 1 &" memadd_shft_reg_ena $end
$var wire 1 '" ncount8 $end
$var wire 1 (" reach_count_9 $end
$var wire 1 )" read_nack $end
$var wire 1 *" read_oe $end
$var wire 1 +" rnw $end
$var wire 1 ," rstart_detect $end
$var wire 1 -" scl_wire $end
$var wire 1 ." sda_in_delay $end
$var wire 1 /" sda_in_wire $end
$var wire 1 0" sda_oe $end
$var wire 1 1" sda_out_wire $end
$var wire 1 2" slave_add_match $end
$var wire 1 3" start_data_pad $end
$var wire 1 4" start_detect $end
$var wire 1 5" start_erase $end
$var wire 1 6" start_erase_reg_ena $end
$var wire 1 7" start_write $end
$var wire 1 8" stop_det_rst $end
$var wire 1 9" stop_detect $end
$var wire 1 :" ufm_arclk $end
$var wire 1 ;" ufm_ardin $end
$var wire 1 <" ufm_arshft $end
$var wire 1 =" ufm_bgpbusy $end
$var wire 1 >" ufm_busy $end
$var wire 1 ?" ufm_drclk $end
$var wire 1 @" ufm_drdin $end
$var wire 1 A" ufm_drdout $end
$var wire 1 B" ufm_drshft $end
$var wire 1 C" ufm_erase $end
$var wire 1 D" ufm_osc $end
$var wire 1 E" ufm_oscena $end
$var wire 1 F" ufm_program $end
$var wire 1 G" write_prot $end
$var wire 1 H" write_prot_true $end
$scope module data_pad_cntr $end
$var parameter 32 I" width $end
$var parameter 32 J" pvalue $end
$var parameter 48 K" lpm_hint $end
$var parameter 104 L" lpm_type $end
$var wire 1 D" clock $end
$var tri1 1 M" cnt_en $end
$var tri1 1 N" clk_en $end
$var tri1 1 O" updown $end
$var tri0 1 z! aclr $end
$var tri0 1 P" sclr $end
$var wire 1 . q [3] $end
$var wire 1 / q [2] $end
$var wire 1 0 q [1] $end
$var wire 1 1 q [0] $end
$var wire 1 Q" qbin [3] $end
$var wire 1 R" qbin [2] $end
$var wire 1 S" qbin [1] $end
$var wire 1 T" qbin [0] $end
$var reg 4 U" cnt [3:0] $end
$upscope $end
$scope module er_add_cntr $end
$var parameter 32 V" width $end
$var parameter 32 W" pvalue $end
$var parameter 48 X" lpm_hint $end
$var parameter 104 Y" lpm_type $end
$var wire 1 D" clock $end
$var tri1 1 Z" cnt_en $end
$var tri1 1 [" clk_en $end
$var tri1 1 \" updown $end
$var tri0 1 {! aclr $end
$var tri0 1 ]" sclr $end
$var wire 1 2 q [3] $end
$var wire 1 3 q [2] $end
$var wire 1 4 q [1] $end
$var wire 1 5 q [0] $end
$var wire 1 ^" qbin [3] $end
$var wire 1 _" qbin [2] $end
$var wire 1 `" qbin [1] $end
$var wire 1 a" qbin [0] $end
$var reg 4 b" cnt [3:0] $end
$upscope $end
$scope module er_stg_cntr $end
$var parameter 32 c" width $end
$var parameter 32 d" pvalue $end
$var parameter 48 e" lpm_hint $end
$var parameter 104 f" lpm_type $end
$var wire 1 z! clock $end
$var tri1 1 g" cnt_en $end
$var tri1 1 h" clk_en $end
$var tri1 1 i" updown $end
$var tri0 1 x! aclr $end
$var tri0 1 j" sclr $end
$var wire 1 6 q [1] $end
$var wire 1 7 q [0] $end
$var wire 1 k" qbin [1] $end
$var wire 1 l" qbin [0] $end
$var reg 2 m" cnt [1:0] $end
$upscope $end
$scope module general_cntr $end
$var parameter 32 n" width $end
$var parameter 32 o" pvalue $end
$var parameter 48 p" lpm_hint $end
$var parameter 104 q" lpm_type $end
$var wire 1 -" clock $end
$var tri1 1 r" cnt_en $end
$var tri1 1 s" clk_en $end
$var tri1 1 t" updown $end
$var tri0 1 u" aclr $end
$var tri0 1 v" sclr $end
$var wire 1 8 q [3] $end
$var wire 1 9 q [2] $end
$var wire 1 : q [1] $end
$var wire 1 ; q [0] $end
$var wire 1 w" qbin [3] $end
$var wire 1 x" qbin [2] $end
$var wire 1 y" qbin [1] $end
$var wire 1 z" qbin [0] $end
$var reg 4 {" cnt [3:0] $end
$upscope $end
$scope module stage_cntr $end
$var parameter 32 |" width $end
$var parameter 32 }" pvalue $end
$var parameter 48 ~" lpm_hint $end
$var parameter 104 !# lpm_type $end
$var wire 1 "# clock $end
$var tri1 1 ## cnt_en $end
$var tri1 1 $# clk_en $end
$var tri1 1 %# updown $end
$var tri0 1 &# aclr $end
$var tri0 1 '# sclr $end
$var wire 1 < q [1] $end
$var wire 1 = q [0] $end
$var wire 1 (# qbin [1] $end
$var wire 1 )# qbin [0] $end
$var reg 2 *# cnt [1:0] $end
$upscope $end
$scope module maxii_io2 $end
$var parameter 40 +# operation_mode $end
$var parameter 40 ,# bus_hold $end
$var parameter 32 -# open_drain_output $end
$var parameter 64 .# lpm_type $end
$var wire 1 /# datain $end
$var wire 1 j! oe $end
$var wire 1 Z! combout $end
$var wire 1 % padio $end
$var reg 1 0# prev_value $end
$var reg 1 1# tmp_padio $end
$var reg 1 2# tmp_combout $end
$var reg 1 3# buf_control $end
$var reg 1 4# iopen_drain $end
$var reg 1 5# ibus_hold $end
$var reg 2 6# iop_mode [1:0] $end
$var wire 1 7# datain_in $end
$var wire 1 8# oe_in $end
$var tri 1 9# padio_tmp $end
$upscope $end
$scope module maxii_io3 $end
$var parameter 40 :# operation_mode $end
$var parameter 40 ;# bus_hold $end
$var parameter 32 <# open_drain_output $end
$var parameter 64 =# lpm_type $end
$var wire 1 1" datain $end
$var wire 1 0" oe $end
$var wire 1 [! combout $end
$var wire 1 $ padio $end
$var reg 1 ># prev_value $end
$var reg 1 ?# tmp_padio $end
$var reg 1 @# tmp_combout $end
$var reg 1 A# buf_control $end
$var reg 1 B# iopen_drain $end
$var reg 1 C# ibus_hold $end
$var reg 2 D# iop_mode [1:0] $end
$var wire 1 E# datain_in $end
$var wire 1 F# oe_in $end
$var tri 1 G# padio_tmp $end
$upscope $end
$scope module maxii_ufm_block1 $end
$var parameter 32 H# address_width $end
$var parameter 32 I# init_file $end
$var parameter 72 J# lpm_type $end
$var parameter 512 K# mem1 $end
$var parameter 512 L# mem2 $end
$var parameter 512 M# mem3 $end
$var parameter 512 N# mem4 $end
$var parameter 512 O# mem5 $end
$var parameter 512 P# mem6 $end
$var parameter 512 Q# mem7 $end
$var parameter 512 R# mem8 $end
$var parameter 512 S# mem9 $end
$var parameter 512 T# mem10 $end
$var parameter 512 U# mem11 $end
$var parameter 512 V# mem12 $end
$var parameter 512 W# mem13 $end
$var parameter 512 X# mem14 $end
$var parameter 512 Y# mem15 $end
$var parameter 512 Z# mem16 $end
$var parameter 32 [# osc_sim_setting $end
$var parameter 32 \# program_time $end
$var parameter 32 ]# erase_time $end
$var parameter 32 ^# widthdata $end
$var parameter 32 _# widthadd $end
$var parameter 32 `# sector0_range $end
$var parameter 32 a# TOSCMN_PW $end
$var parameter 32 b# TPPMX $end
$var parameter 32 c# TEPMX $end
$var tri0 1 F" program $end
$var tri0 1 C" erase $end
$var wire 1 E" oscena $end
$var wire 1 :" arclk $end
$var wire 1 <" arshft $end
$var wire 1 ;" ardin $end
$var wire 1 ?" drclk $end
$var wire 1 B" drshft $end
$var tri0 1 @" drdin $end
$var tri0 1 d# sbdin $end
$var wire 1 e# devclrn $end
$var wire 1 f# devpor $end
$var tri0 1 g# ctrl_bgpbusy $end
$var wire 1 ]! busy $end
$var wire 1 _! osc $end
$var wire 1 ^! drdout $end
$var wire 1 h# sbdout $end
$var wire 1 \! bgpbusy $end
$var reg 4096 i# ufm_initf_sec0 [4095:0] $end
$var reg 4096 j# ufm_initf_sec1 [4095:0] $end
$var reg 16 k# init_word0 [15:0] $end
$var reg 16 l# init_word1 [15:0] $end
$var reg 9 m# addr_reg [8:0] $end
$var reg 9 n# address_now [8:0] $end
$var reg 16 o# data_reg [15:0] $end
$var reg 16 p# data_now [15:0] $end
$var reg 16 q# storage_output [15:0] $end
$var reg 1 r# osc_str $end
$var reg 1 s# program_pulse $end
$var reg 1 t# erase_pulse $end
$var reg 1 u# first_warning $end
$var reg 1 v# program_reg $end
$var reg 1 w# erase_reg $end
$var wire 1 x# address_tmp [8] $end
$var wire 1 y# address_tmp [7] $end
$var wire 1 z# address_tmp [6] $end
$var wire 1 {# address_tmp [5] $end
$var wire 1 |# address_tmp [4] $end
$var wire 1 }# address_tmp [3] $end
$var wire 1 ~# address_tmp [2] $end
$var wire 1 !$ address_tmp [1] $end
$var wire 1 "$ address_tmp [0] $end
$var wire 1 #$ new_read_data [15] $end
$var wire 1 $$ new_read_data [14] $end
$var wire 1 %$ new_read_data [13] $end
$var wire 1 &$ new_read_data [12] $end
$var wire 1 '$ new_read_data [11] $end
$var wire 1 ($ new_read_data [10] $end
$var wire 1 )$ new_read_data [9] $end
$var wire 1 *$ new_read_data [8] $end
$var wire 1 +$ new_read_data [7] $end
$var wire 1 ,$ new_read_data [6] $end
$var wire 1 -$ new_read_data [5] $end
$var wire 1 .$ new_read_data [4] $end
$var wire 1 /$ new_read_data [3] $end
$var wire 1 0$ new_read_data [2] $end
$var wire 1 1$ new_read_data [1] $end
$var wire 1 2$ new_read_data [0] $end
$var wire 1 3$ data_tmp [15] $end
$var wire 1 4$ data_tmp [14] $end
$var wire 1 5$ data_tmp [13] $end
$var wire 1 6$ data_tmp [12] $end
$var wire 1 7$ data_tmp [11] $end
$var wire 1 8$ data_tmp [10] $end
$var wire 1 9$ data_tmp [9] $end
$var wire 1 :$ data_tmp [8] $end
$var wire 1 ;$ data_tmp [7] $end
$var wire 1 <$ data_tmp [6] $end
$var wire 1 =$ data_tmp [5] $end
$var wire 1 >$ data_tmp [4] $end
$var wire 1 ?$ data_tmp [3] $end
$var wire 1 @$ data_tmp [2] $end
$var wire 1 A$ data_tmp [1] $end
$var wire 1 B$ data_tmp [0] $end
$var wire 1 C$ sys_busy $end
$var wire 1 D$ gated_arclk $end
$var wire 1 E$ gated_drclk $end
$var wire 1 F$ data_reg_msb $end
$var wire 1 G$ int_osc $end
$var wire 1 H$ i_program $end
$var wire 1 I$ i_erase $end
$var wire 1 J$ i_oscena $end
$var wire 1 K$ i_arclk $end
$var wire 1 L$ i_arshft $end
$var wire 1 M$ i_ardin $end
$var wire 1 N$ i_drclk $end
$var wire 1 O$ i_drshft $end
$var wire 1 P$ i_drdin $end
$var wire 1 Q$ i_sbdin $end
$var integer 32 R$ i $end
$var integer 32 S$ j $end
$var integer 32 T$ k $end
$var integer 32 U$ l $end
$var integer 32 V$ n $end
$var integer 32 W$ mem_cnt $end
$var integer 32 X$ bit_cnt $end
$var integer 32 Y$ numwords $end
$upscope $end
$upscope $end
$upscope $end
$upscope $end
$enddefinitions $end
#0
$dumpvars
b100 I"
b0 J"
b10101010100111001010101010100110100010101000100 K"
b1100001010111110110011101110010011000010111100101100011011011110111010101101110011101000110010101110010 L"
b100 V"
b0 W"
b10101010100111001010101010100110100010101000100 X"
b1100001010111110110011101110010011000010111100101100011011011110111010101101110011101000110010101110010 Y"
b10 c"
b0 d"
b10101010100111001010101010100110100010101000100 e"
b1100001010111110110011101110010011000010111100101100011011011110111010101101110011101000110010101110010 f"
b100 n"
b0 o"
b10101010100111001010101010100110100010101000100 p"
b1100001010111110110011101110010011000010111100101100011011011110111010101101110011101000110010101110010 q"
b10 |"
b0 }"
b10101010100111001010101010100110100010101000100 ~"
b1100001010111110110011101110010011000010111100101100011011011110111010101101110011101000110010101110010 !#
b110001001101001011001000110100101110010 +#
b110011001100001011011000111001101100101 ,#
b1110100011100100111010101100101 -#
b110110101100001011110000110100101101001010111110110100101101111 .#
b110001001101001011001000110100101110010 :#
b110011001100001011011000111001101100101 ;#
b1110100011100100111010101100101 <#
b110110101100001011110000110100101101001010111110110100101101111 =#
b1001 H#
b1101110011011110110111001100101 I#
b11011010110000101111000011010010110100101011111011101010110011001101101 J#
b11111111111111111111111111111111111111111111111111111111111111111111111111111111111111111111111111111111111111111111111111111111111111111111111111111111111111111111111111111111111111111111111111111111111111111111111111111111111111111111111111111111111111111111111111111111111111111111111111111111111111111111111111111111111111111111111111111111111111111111111111111111111111111111111111111111111111111111111111111111111111111111111111111111111111111111111111111111111111111111111111111111111111111111111111111111 K#
b11111111111111111111111111111111111111111111111111111111111111111111111111111111111111111111111111111111111111111111111111111111111111111111111111111111111111111111111111111111111111111111111111111111111111111111111111111111111111111111111111111111111111111111111111111111111111111111111111111111111111111111111111111111111111111111111111111111111111111111111111111111111111111111111111111111111111111111111111111111111111111111111111111111111111111111111111111111111111111111111111111111111111111111111111111111 L#
b11111111111111111111111111111111111111111111111111111111111111111111111111111111111111111111111111111111111111111111111111111111111111111111111111111111111111111111111111111111111111111111111111111111111111111111111111111111111111111111111111111111111111111111111111111111111111111111111111111111111111111111111111111111111111111111111111111111111111111111111111111111111111111111111111111111111111111111111111111111111111111111111111111111111111111111111111111111111111111111111111111111111111111111111111111111 M#
b11111111111111111111111111111111111111111111111111111111111111111111111111111111111111111111111111111111111111111111111111111111111111111111111111111111111111111111111111111111111111111111111111111111111111111111111111111111111111111111111111111111111111111111111111111111111111111111111111111111111111111111111111111111111111111111111111111111111111111111111111111111111111111111111111111111111111111111111111111111111111111111111111111111111111111111111111111111111111111111111111111111111111111111111111111111 N#
b11111111111111111111111111111111111111111111111111111111111111111111111111111111111111111111111111111111111111111111111111111111111111111111111111111111111111111111111111111111111111111111111111111111111111111111111111111111111111111111111111111111111111111111111111111111111111111111111111111111111111111111111111111111111111111111111111111111111111111111111111111111111111111111111111111111111111111111111111111111111111111111111111111111111111111111111111111111111111111111111111111111111111111111111111111111 O#
b11111111111111111111111111111111111111111111111111111111111111111111111111111111111111111111111111111111111111111111111111111111111111111111111111111111111111111111111111111111111111111111111111111111111111111111111111111111111111111111111111111111111111111111111111111111111111111111111111111111111111111111111111111111111111111111111111111111111111111111111111111111111111111111111111111111111111111111111111111111111111111111111111111111111111111111111111111111111111111111111111111111111111111111111111111111 P#
b11111111111111111111111111111111111111111111111111111111111111111111111111111111111111111111111111111111111111111111111111111111111111111111111111111111111111111111111111111111111111111111111111111111111111111111111111111111111111111111111111111111111111111111111111111111111111111111111111111111111111111111111111111111111111111111111111111111111111111111111111111111111111111111111111111111111111111111111111111111111111111111111111111111111111111111111111111111111111111111111111111111111111111111111111111111 Q#
b11111111111111111111111111111111111111111111111111111111111111111111111111111111111111111111111111111111111111111111111111111111111111111111111111111111111111111111111111111111111111111111111111111111111111111111111111111111111111111111111111111111111111111111111111111111111111111111111111111111111111111111111111111111111111111111111111111111111111111111111111111111111111111111111111111111111111111111111111111111111111111111111111111111111111111111111111111111111111111111111111111111111111111111111111111111 R#
b11111111111111111111111111111111111111111111111111111111111111111111111111111111111111111111111111111111111111111111111111111111111111111111111111111111111111111111111111111111111111111111111111111111111111111111111111111111111111111111111111111111111111111111111111111111111111111111111111111111111111111111111111111111111111111111111111111111111111111111111111111111111111111111111111111111111111111111111111111111111111111111111111111111111111111111111111111111111111111111111111111111111111111111111111111111 S#
b11111111111111111111111111111111111111111111111111111111111111111111111111111111111111111111111111111111111111111111111111111111111111111111111111111111111111111111111111111111111111111111111111111111111111111111111111111111111111111111111111111111111111111111111111111111111111111111111111111111111111111111111111111111111111111111111111111111111111111111111111111111111111111111111111111111111111111111111111111111111111111111111111111111111111111111111111111111111111111111111111111111111111111111111111111111 T#
b11111111111111111111111111111111111111111111111111111111111111111111111111111111111111111111111111111111111111111111111111111111111111111111111111111111111111111111111111111111111111111111111111111111111111111111111111111111111111111111111111111111111111111111111111111111111111111111111111111111111111111111111111111111111111111111111111111111111111111111111111111111111111111111111111111111111111111111111111111111111111111111111111111111111111111111111111111111111111111111111111111111111111111111111111111111 U#
b11111111111111111111111111111111111111111111111111111111111111111111111111111111111111111111111111111111111111111111111111111111111111111111111111111111111111111111111111111111111111111111111111111111111111111111111111111111111111111111111111111111111111111111111111111111111111111111111111111111111111111111111111111111111111111111111111111111111111111111111111111111111111111111111111111111111111111111111111111111111111111111111111111111111111111111111111111111111111111111111111111111111111111111111111111111 V#
b11111111111111111111111111111111111111111111111111111111111111111111111111111111111111111111111111111111111111111111111111111111111111111111111111111111111111111111111111111111111111111111111111111111111111111111111111111111111111111111111111111111111111111111111111111111111111111111111111111111111111111111111111111111111111111111111111111111111111111111111111111111111111111111111111111111111111111111111111111111111111111111111111111111111111111111111111111111111111111111111111111111111111111111111111111111 W#
b11111111111111111111111111111111111111111111111111111111111111111111111111111111111111111111111111111111111111111111111111111111111111111111111111111111111111111111111111111111111111111111111111111111111111111111111111111111111111111111111111111111111111111111111111111111111111111111111111111111111111111111111111111111111111111111111111111111111111111111111111111111111111111111111111111111111111111111111111111111111111111111111111111111111111111111111111111111111111111111111111111111111111111111111111111111 X#
b11111111111111111111111111111111111111111111111111111111111111111111111111111111111111111111111111111111111111111111111111111111111111111111111111111111111111111111111111111111111111111111111111111111111111111111111111111111111111111111111111111111111111111111111111111111111111111111111111111111111111111111111111111111111111111111111111111111111111111111111111111111111111111111111111111111111111111111111111111111111111111111111111111111111111111111111111111111111111111111111111111111111111111111111111111111 Y#
b11111111111111111111111111111111111111111111111111111111111111111111111111111111111111111111111111111111111111111111111111111111111111111111111111111111111111111111111111111111111111111111111111111111111111111111111111111111111111111111111111111111111111111111111111111111111111111111111111111111111111111111111111111111111111111111111111111111111111111111111111111111111111111111111111111111111111111111111111111111111111111111111111111111111111111111111111111111111111111111111111111111111111111111111111111111 Z#
b101011111100100000 [#
b110000110101000000000 \#
b11101110011010110010100000000 ]#
b10000 ^#
b1001 _#
b100000000 `#
b10101111110010000 a#
b110000110101000000000 b#
b1111010000100100000 c#
1!
1"
bz #
bx &
b10110000 '
b10110001 (
b10101010 )
bx *
0+
0>
0?
0B
0D
0F
0H
0J
0L
0M
0O
0P
xQ
0R
b0 T
0U
0X
0Y
0Z
x[
1\
x]
0^
0_
x`
0b
0c
xd
0f
0g
0h
0i
0j
0k
xl
0n
0o
0p
xq
xs
0u
xx
0y
x|
0~
0!!
0"!
0#!
0$!
0&!
0'!
0(!
0)!
0+!
0-!
0.!
0/!
02!
04!
05!
06!
07!
09!
0:!
0;!
0<!
0J!
bx i#
bx j#
bx k#
bx l#
b0 m#
b0 n#
bx o#
bx p#
b1111111111111111 q#
xr#
0s#
0t#
1u#
xv#
xw#
b1000000000 R$
bx S$
bx T$
bx U$
b10000 V$
bx W$
bx X$
b1000000000 Y$
0>#
z?#
1@#
0A#
1B#
0C#
b11 D#
00#
z1#
12#
03#
14#
05#
b11 6#
b0 *#
b0 {"
b0 m"
b0 b"
b0 U"
1$
1%
01
00
0/
0.
05
04
03
02
07
06
0;
0:
09
08
0=
0<
1@
0A
1C
1E
1G
1I
0K
0N
0S
xV
0W
1a
1e
1m
1r
1t
1v
0w
1z
0{
1}
1%!
1*!
x,!
10!
01!
03!
18!
0=!
0C!
0B!
1A!
1@!
0?!
1>!
0I!
0H!
0G!
0F!
0E!
0D!
0K!
1R!
1Q!
1P!
1O!
1N!
0M!
1L!
0Y!
0X!
0W!
0V!
0U!
0T!
0S!
1Z!
1[!
0\!
0]!
x^!
x_!
0`!
0a!
0b!
0c!
0d!
0e!
0f!
0g!
0h!
0i!
0j!
0k!
0l!
0m!
0n!
0o!
xp!
0q!
0r!
0s!
0t!
0u!
0v!
0w!
0x!
0y!
0z!
0{!
0|!
0}!
0~!
0!"
0""
0#"
x$"
x%"
0&"
1'"
x("
0)"
x*"
0+"
0,"
1-"
0."
1/"
00"
11"
02"
03"
04"
05"
06"
07"
08"
09"
0:"
0;"
x<"
0="
0>"
0?"
0@"
xA"
1B"
0C"
xD"
1E"
0F"
0G"
0H"
0"$
0!$
0~#
0}#
0|#
0{#
0z#
0y#
0x#
12$
11$
10$
1/$
1.$
1-$
1,$
1+$
1*$
1)$
1($
1'$
1&$
1%$
1$$
1#$
xB$
xA$
x@$
x?$
x>$
x=$
x<$
x;$
x:$
x9$
x8$
x7$
x6$
x5$
x4$
x3$
0C$
0D$
0E$
xF$
xG$
0H$
0I$
1J$
0K$
xL$
0M$
0N$
1O$
0P$
0Q$
1E#
0F#
zG#
07#
08#
z9#
0-
0,
0/#
1%#
0'#
1##
0"#
0$#
0&#
1t"
0v"
1r"
0s"
0u"
1i"
0j"
1g"
0h"
1\"
0]"
1Z"
0["
1O"
0P"
1M"
0N"
0T"
0S"
0R"
0Q"
0a"
0`"
0_"
0^"
0l"
0k"
0z"
0y"
0x"
0w"
0)#
0(#
0h#
0g#
zf#
ze#
0d#
$end
#90000
0r#
0G$
0u#
0_!
0D"
#180000
1r#
1G$
1_!
1D"
0v#
0w#
xo
1&!
#270000
0r#
0G$
0_!
0D"
#360000
1r#
1G$
1_!
1D"
xn
1'!
1."
xm!
xu"
17!
#450000
0r#
0G$
0_!
0D"
#540000
1r#
1G$
1_!
1D"
xp
15!
#630000
0r#
0G$
0_!
0D"
